Restador/simulation/qsim/restador.msim.vcd
$comment
	File created using the following command:
		vcd file restador.msim.vcd -direction
$end
$date
	Sat Nov 04 11:21:52 2023
$end
$version
	ModelSim Version 10.1d
$end
$timescale
	1ps
$end
$scope module restador_vlg_vec_tst $end
$var reg 1 ! clk $end
$var reg 1 " in_a $end
$var reg 1 # in_b $end
$var reg 1 $ in_bin $end
$var wire 1 % o_bout $end
$var wire 1 & o_r $end
$var wire 1 ' sampler $end
$scope module i1 $end
$var wire 1 ( gnd $end
$var wire 1 ) vcc $end
$var wire 1 * unknown $end
$var tri1 1 + devclrn $end
$var tri1 1 , devpor $end
$var tri1 1 - devoe $end
$var wire 1 . o_r~output_o $end
$var wire 1 / o_bout~output_o $end
$var wire 1 0 clk~input_o $end
$var wire 1 1 clk~inputclkctrl_outclk $end
$var wire 1 2 in_a~input_o $end
$var wire 1 3 D1|Q~feeder_combout $end
$var wire 1 4 D1|Q~q $end
$var wire 1 5 in_b~input_o $end
$var wire 1 6 D2|Q~feeder_combout $end
$var wire 1 7 D2|Q~q $end
$var wire 1 8 in_bin~input_o $end
$var wire 1 9 D3|Q~feeder_combout $end
$var wire 1 : D3|Q~q $end
$var wire 1 ; r~0_combout $end
$var wire 1 < D5|Q~q $end
$var wire 1 = bout~0_combout $end
$var wire 1 > D4|Q~q $end
$upscope $end
$upscope $end
$enddefinitions $end
#0
$dumpvars
0!
0"
0#
1$
0%
0&
x'
0(
1)
x*
1+
1,
1-
0.
0/
00
01
02
03
04
05
06
07
18
19
0:
0;
0<
0=
0>
$end
#10000
1!
10
11
0'
1:
1=
1;
#20000
0!
00
01
1'
#30000
1!
10
11
0'
1>
1<
1/
1.
1%
1&
#40000
0!
00
01
1'
#50000
1!
10
11
0'
#60000
0!
00
01
1'
#70000
1!
10
11
0'
#80000
0!
00
01
1'
#90000
1!
10
11
0'
#100000
0!
00
01
1'
#110000
1!
10
11
0'
#120000
0!
00
01
1'
#130000
1!
10
11
0'
#140000
0!
00
01
1'
#150000
1!
10
11
0'
#160000
0!
00
01
1'
#170000
1!
10
11
0'
#180000
0!
00
01
1'
#190000
1!
10
11
0'
#200000
0!
00
01
1'
#210000
1!
10
11
0'
#220000
0!
00
01
1'
#230000
1!
10
11
0'
#240000
0!
00
01
1'
#250000
1!
10
11
0'
#260000
0!
00
01
1'
#270000
1!
10
11
0'
#280000
0!
00
01
1'
#290000
1!
10
11
0'
#300000
0!
00
01
1'
#310000
1!
10
11
0'
#320000
0!
00
01
1'
#330000
1!
10
11
0'
#340000
0!
00
01
1'
#350000
1!
10
11
0'
#360000
0!
00
01
1'
#370000
1!
10
11
0'
#380000
0!
00
01
1'
#390000
1!
10
11
0'
#400000
0!
00
01
1'
#410000
1!
10
11
0'
#420000
0!
00
01
1'
#430000
1!
10
11
0'
#440000
0!
00
01
1'
#450000
1!
10
11
0'
#460000
0!
00
01
1'
#470000
1!
10
11
0'
#480000
0!
00
01
1'
#490000
1!
10
11
0'
#500000
0!
00
01
1'
#510000
1!
10
11
0'
#520000
0!
00
01
1'
#530000
1!
10
11
0'
#540000
0!
00
01
1'
#550000
1!
10
11
0'
#560000
0!
00
01
1'
#570000
1!
10
11
0'
#580000
0!
00
01
1'
#590000
1!
10
11
0'
#600000
0!
00
01
1'
#610000
1!
10
11
0'
#620000
0!
00
01
1'
#630000
1!
10
11
0'
#640000
0!
00
01
1'
#650000
1!
10
11
0'
#660000
0!
00
01
1'
#670000
1!
10
11
0'
#680000
0!
00
01
1'
#690000
1!
10
11
0'
#700000
0!
00
01
1'
#710000
1!
10
11
0'
#720000
0!
00
01
1'
#730000
1!
10
11
0'
#740000
0!
00
01
1'
#750000
1!
10
11
0'
#760000
0!
00
01
1'
#770000
1!
10
11
0'
#780000
0!
00
01
1'
#790000
1!
10
11
0'
#800000
0!
00
01
1'
#810000
1!
10
11
0'
#820000
0!
00
01
1'
#830000
1!
10
11
0'
#840000
0!
00
01
1'
#850000
1!
10
11
0'
#860000
0!
00
01
1'
#870000
1!
10
11
0'
#880000
0!
00
01
1'
#890000
1!
10
11
0'
#900000
0!
00
01
1'
#910000
1!
10
11
0'
#920000
0!
00
01
1'
#930000
1!
10
11
0'
#940000
0!
00
01
1'
#950000
1!
10
11
0'
#960000
0!
00
01
1'
#970000
1!
10
11
0'
#980000
0!
00
01
1'
#990000
1!
10
11
0'
